xscope.vcd
$timescale
  10.000000 ns
$end
$var real 0 0 Groundtruth $end
$var wire 1 255 Missing_Data $end
$enddefinitions $end
#180702
r-5.000000 0
#181048
r-4.980000 0
#181394
r-4.960000 0
#181740
r-4.940000 0
#182086
r-4.920000 0
#182432
r-4.900000 0
#182777
r-4.880000 0
#183123
r-4.860000 0
#183469
r-4.840000 0
#183815
r-4.820000 0
#184161
r-4.800000 0
#184507
r-4.780000 0
#184852
r-4.760000 0
#185198
r-4.740000 0
#185544
r-4.720000 0
#185890
r-4.700000 0
#186236
r-4.680000 0
#186582
r-4.660000 0
#186927
r-4.640000 0
#187273
r-4.620000 0
#187619
r-4.600000 0
#187965
r-4.580000 0
#188311
r-4.560000 0
#188657
r-4.540000 0
#189002
r-4.520000 0
#189348
r-4.500000 0
#189694
r-4.480000 0
#190040
r-4.460001 0
#190386
r-4.440001 0
#190732
r-4.420001 0
#191077
r-4.400001 0
#191423
r-4.380001 0
#191769
r-4.360001 0
#192115
r-4.340001 0
#192461
r-4.320001 0
#192807
r-4.300001 0
#193152
r-4.280001 0
#193498
r-4.260001 0
#193844
r-4.240001 0
#194190
r-4.220001 0
#194536
r-4.200001 0
#194882
r-4.180001 0
#195227
r-4.160001 0
#195573
r-4.140001 0
#195919
r-4.120001 0
#196265
r-4.100001 0
#196611
r-4.080001 0
#196957
r-4.060001 0
#197302
r-4.040001 0
#197648
r-4.020001 0
#197994
r-4.000001 0
#198340
r-3.980001 0
#198686
r-3.960001 0
#199032
r-3.940001 0
#199377
r-3.920001 0
#199723
r-3.900001 0
#200069
r-3.880001 0
#200415
r-3.860001 0
#200761
r-3.840001 0
#201107
r-3.820001 0
#201452
r-3.800001 0
#201798
r-3.780001 0
#202144
r-3.760001 0
#202490
r-3.740001 0
#204017
r-3.720001 0
#204362
r-3.700001 0
#204708
r-3.680001 0
#205054
r-3.660001 0
#205400
r-3.640001 0
#205746
r-3.620001 0
#206092
r-3.600001 0
#206437
r-3.580001 0
#206783
r-3.560001 0
#207129
r-3.540001 0
#207475
r-3.520001 0
#207821
r-3.500001 0
#208167
r-3.480001 0
#208512
r-3.460001 0
#208858
r-3.440001 0
#209204
r-3.420002 0
#209550
r-3.400002 0
#209896
r-3.380002 0
#210242
r-3.360002 0
#210587
r-3.340002 0
#210933
r-3.320002 0
#211279
r-3.300002 0
#211625
r-3.280002 0
#211971
r-3.260002 0
#212317
r-3.240002 0
#212662
r-3.220002 0
#213008
r-3.200002 0
#213354
r-3.180002 0
#213700
r-3.160002 0
#214046
r-3.140002 0
#214392
r-3.120002 0
#214737
r-3.100002 0
#215083
r-3.080002 0
#215429
r-3.060002 0
#215775
r-3.040002 0
#216121
r-3.020002 0
#216467
r-3.000002 0
#216812
r-2.980002 0
#217158
r-2.960002 0
#217504
r-2.940002 0
#217850
r-2.920002 0
#218196
r-2.900002 0
#218542
r-2.880002 0
#218887
r-2.860002 0
#219233
r-2.840002 0
#219579
r-2.820002 0
#219925
r-2.800002 0
#220271
r-2.780002 0
#220617
r-2.760002 0
#220962
r-2.740002 0
#221308
r-2.720002 0
#221654
r-2.700002 0
#222000
r-2.680002 0
#222346
r-2.660002 0
#222692
r-2.640002 0
#223037
r-2.620002 0
#223383
r-2.600002 0
#223729
r-2.580002 0
#224075
r-2.560002 0
#224421
r-2.540002 0
#224767
r-2.520002 0
#225112
r-2.500002 0
#225458
r-2.480002 0
#225804
r-2.460002 0
#227331
r-2.440002 0
#227677
r-2.420002 0
#228022
r-2.400002 0
#228368
r-2.380002 0
#228714
r-2.360003 0
#229060
r-2.340003 0
#229406
r-2.320003 0
#229752
r-2.300003 0
#230097
r-2.280003 0
#230443
r-2.260003 0
#230789
r-2.240003 0
#231135
r-2.220003 0
#231481
r-2.200003 0
#231827
r-2.180003 0
#232172
r-2.160003 0
#232518
r-2.140003 0
#232864
r-2.120003 0
#233210
r-2.100003 0
#233556
r-2.080003 0
#233902
r-2.060003 0
#234247
r-2.040003 0
#234593
r-2.020003 0
#234939
r-2.000003 0
#235285
r-1.980003 0
#235631
r-1.960003 0
#235977
r-1.940003 0
#236322
r-1.920003 0
#236668
r-1.900003 0
#237014
r-1.880003 0
#237360
r-1.860003 0
#237706
r-1.840003 0
#238052
r-1.820003 0
#238397
r-1.800003 0
#238743
r-1.780003 0
#239089
r-1.760003 0
#239435
r-1.740003 0
#239781
r-1.720003 0
#240127
r-1.700003 0
#240472
r-1.680003 0
#240818
r-1.660003 0
#241164
r-1.640003 0
#241510
r-1.620003 0
#241856
r-1.600003 0
#242202
r-1.580003 0
#242547
r-1.560003 0
#242893
r-1.540003 0
#243239
r-1.520003 0
#243585
r-1.500003 0
#243931
r-1.480003 0
#244277
r-1.460003 0
#244622
r-1.440003 0
#244968
r-1.420003 0
#245314
r-1.400003 0
#245660
r-1.380003 0
#246006
r-1.360003 0
#246352
r-1.340003 0
#246697
r-1.320004 0
#247043
r-1.300004 0
#247389
r-1.280004 0
#247735
r-1.260004 0
#248081
r-1.240004 0
#248427
r-1.220004 0
#248772
r-1.200004 0
#249118
r-1.180004 0
#250645
r-1.160004 0
#250991
r-1.140004 0
#251337
r-1.120004 0
#251682
r-1.100004 0
#252028
r-1.080004 0
#252374
r-1.060004 0
#252720
r-1.040004 0
#253066
r-1.020004 0
#253412
r-1.000004 0
#253757
r-0.980004 0
#254103
r-0.960004 0
#254449
r-0.940004 0
#254795
r-0.920004 0
#255141
r-0.900004 0
#255487
r-0.880004 0
#255832
r-0.860004 0
#256178
r-0.840004 0
#256524
r-0.820004 0
#256870
r-0.800004 0
#257216
r-0.780004 0
#257562
r-0.760004 0
#257907
r-0.740004 0
#258253
r-0.720004 0
#258599
r-0.700004 0
#258945
r-0.680004 0
#259291
r-0.660004 0
#259637
r-0.640004 0
#259982
r-0.620004 0
#260328
r-0.600004 0
#260674
r-0.580004 0
#261020
r-0.560004 0
#261366
r-0.540004 0
#261712
r-0.520004 0
#262057
r-0.500004 0
#262403
r-0.480004 0
#262749
r-0.460004 0
#263095
r-0.440004 0
#263441
r-0.420004 0
#263787
r-0.400004 0
#264132
r-0.380004 0
#264478
r-0.360004 0
#264824
r-0.340004 0
#265170
r-0.320004 0
#265516
r-0.300004 0
#265862
r-0.280004 0
#266207
r-0.260004 0
#266553
r-0.240004 0
#266899
r-0.220004 0
#267245
r-0.200004 0
#267591
r-0.180004 0
#267937
r-0.160004 0
#268282
r-0.140004 0
#268628
r-0.120004 0
#268974
r-0.100004 0
#269320
r-0.080004 0
#269666
r-0.060004 0
#270012
r-0.040004 0
#270357
r-0.020004 0
#270703
r-0.000004 0
#271049
r0.019996 0
#271395
r0.039996 0
#271741
r0.059996 0
#272087
r0.079996 0
#272432
r0.099996 0
#273959
r0.119996 0
#274305
r0.139996 0
#274651
r0.159996 0
#274997
r0.179996 0
#275342
r0.199996 0
#275688
r0.219996 0
#276034
r0.239996 0
#276380
r0.259996 0
#276726
r0.279996 0
#277072
r0.299996 0
#277417
r0.319996 0
#277763
r0.339996 0
#278109
r0.359996 0
#278455
r0.379996 0
#278801
r0.399996 0
#279147
r0.419996 0
#279492
r0.439996 0
#279838
r0.459996 0
#280184
r0.479996 0
#280530
r0.499996 0
#280876
r0.519996 0
#281222
r0.539996 0
#281567
r0.559996 0
#281913
r0.579996 0
#282259
r0.599996 0
#282605
r0.619996 0
#282951
r0.639996 0
#283297
r0.659996 0
#283642
r0.679996 0
#283988
r0.699996 0
#284334
r0.719996 0
#284680
r0.739996 0
#285026
r0.759996 0
#285372
r0.779996 0
#285717
r0.799996 0
#286063
r0.819996 0
#286409
r0.839996 0
#286755
r0.859996 0
#287101
r0.879996 0
#287447
r0.899996 0
#287792
r0.919995 0
#288138
r0.939995 0
#288484
r0.959995 0
#288830
r0.979995 0
#289176
r0.999995 0
#289522
r1.019995 0
#289867
r1.039995 0
#290213
r1.059995 0
#290559
r1.079995 0
#290905
r1.099995 0
#291251
r1.119995 0
#291597
r1.139995 0
#291942
r1.159995 0
#292288
r1.179995 0
#292634
r1.199995 0
#292980
r1.219995 0
#293326
r1.239995 0
#293672
r1.259995 0
#294017
r1.279995 0
#294363
r1.299995 0
#294709
r1.319995 0
#295055
r1.339995 0
#295401
r1.359995 0
#295747
r1.379995 0
#297273
r1.399995 0
#297619
r1.419995 0
#297965
r1.439995 0
#298311
r1.459995 0
#298657
r1.479995 0
#299002
r1.499995 0
#299348
r1.519995 0
#299694
r1.539995 0
#300040
r1.559995 0
#300386
r1.579995 0
#300732
r1.599995 0
#301077
r1.619995 0
#301423
r1.639995 0
#301769
r1.659995 0
#302115
r1.679995 0
#302461
r1.699995 0
#302807
r1.719995 0
#303152
r1.739995 0
#303498
r1.759995 0
#303844
r1.779995 0
#304190
r1.799995 0
#304536
r1.819995 0
#304882
r1.839995 0
#305227
r1.859995 0
#305573
r1.879995 0
#305919
r1.899995 0
#306265
r1.919995 0
#306611
r1.939995 0
#306957
r1.959995 0
#307302
r1.979995 0
#307648
r1.999995 0
#307994
r2.019994 0
#308340
r2.039994 0
#308686
r2.059994 0
#309032
r2.079994 0
#309377
r2.099994 0
#309723
r2.119994 0
#310069
r2.139994 0
#310415
r2.159994 0
#310761
r2.179994 0
#311107
r2.199994 0
#311452
r2.219994 0
#311798
r2.239994 0
#312144
r2.259994 0
#312490
r2.279994 0
#312836
r2.299994 0
#313182
r2.319994 0
#313527
r2.339994 0
#313873
r2.359994 0
#314219
r2.379994 0
#314565
r2.399994 0
#314911
r2.419994 0
#315257
r2.439994 0
#315602
r2.459994 0
#315948
r2.479994 0
#316294
r2.499994 0
#316640
r2.519994 0
#316986
r2.539994 0
#317332
r2.559994 0
#317677
r2.579994 0
#318023
r2.599994 0
#318369
r2.619994 0
#318715
r2.639994 0
#319061
r2.659994 0
#320587
r2.679994 0
#320933
r2.699994 0
#321279
r2.719994 0
#321625
r2.739994 0
#321971
r2.759994 0
#322317
r2.779994 0
#322662
r2.799994 0
#323008
r2.819994 0
#323354
r2.839994 0
#323700
r2.859994 0
#324046
r2.879994 0
#324392
r2.899994 0
#324737
r2.919994 0
#325083
r2.939994 0
#325429
r2.959994 0
#325775
r2.979994 0
#326121
r2.999994 0
#326467
r3.019994 0
#326812
r3.039994 0
#327158
r3.059994 0
#327504
r3.079993 0
#327850
r3.099993 0
#328196
r3.119993 0
#328542
r3.139993 0
#328887
r3.159993 0
#329233
r3.179993 0
#329579
r3.199993 0
#329925
r3.219993 0
#330271
r3.239993 0
#330617
r3.259993 0
#330962
r3.279993 0
#331308
r3.299993 0
#331654
r3.319993 0
#332000
r3.339993 0
#332346
r3.359993 0
#332692
r3.379993 0
#333037
r3.399993 0
#333383
r3.419993 0
#333729
r3.439993 0
#334075
r3.459993 0
#334421
r3.479993 0
#334767
r3.499993 0
#335112
r3.519993 0
#335458
r3.539993 0
#335804
r3.559993 0
#336150
r3.579993 0
#336496
r3.599993 0
#336842
r3.619993 0
#337187
r3.639993 0
#337533
r3.659993 0
#337879
r3.679993 0
#338225
r3.699993 0
#338571
r3.719993 0
#338917
r3.739993 0
#339262
r3.759993 0
#339608
r3.779993 0
#339954
r3.799993 0
#340300
r3.819993 0
#340646
r3.839993 0
#340992
r3.859993 0
#341337
r3.879993 0
#341683
r3.899993 0
#342029
r3.919993 0
#342375
r3.939993 0
#343902
r3.959993 0
#344247
r3.979993 0
#344593
r3.999993 0
#344939
r4.019993 0
#345285
r4.039993 0
#345631
r4.059993 0
#345977
r4.079993 0
#346322
r4.099993 0
#346668
r4.119993 0
#347014
r4.139993 0
#347360
r4.159993 0
#347706
r4.179993 0
#348052
r4.199993 0
#348397
r4.219993 0
#348743
r4.239993 0
#349089
r4.259993 0
#349435
r4.279993 0
#349781
r4.299993 0
#350127
r4.319993 0
#350472
r4.339993 0
#350818
r4.359993 0
#351164
r4.379992 0
#351510
r4.399992 0
#351856
r4.419992 0
#352202
r4.439992 0
#352547
r4.459992 0
#352893
r4.479992 0
#353239
r4.499992 0
#353585
r4.519992 0
#353931
r4.539992 0
#354277
r4.559992 0
#354622
r4.579992 0
#354968
r4.599992 0
#355314
r4.619992 0
#355660
r4.639992 0
#356006
r4.659992 0
#356352
r4.679992 0
#356697
r4.699992 0
#357043
r4.719992 0
#357389
r4.739992 0
#357735
r4.759992 0
#358081
r4.779992 0
#358427
r4.799992 0
#358772
r4.819992 0
#359118
r4.839992 0
#359464
r4.859992 0
#359810
r4.879992 0
#360156
r4.899992 0
#360502
r4.919992 0
#360847
r4.939992 0
#361193
r4.959992 0
#361539
r4.979992 0
